[32mINFO    [0m root:base.py:18 正在初始化driver：<selenium.webdriver.chrome.webdriver.WebDriver (session="913f321973a8dc74c39cab9055fae219")>
[32mINFO    [0m root:page_mp_login.py:42 正在调用vstudio登陆业务方法，用户名为：18335519636 密码：123...abc
[32mINFO    [0m root:base.py:41 正在对：('xpath', '/html/body/div[1]/div[2]/div/div[2]/div[2]/div[1]/ul/li[3]') 元素进行点击操作
[32mINFO    [0m root:base.py:29 正在查找元素：('xpath', '/html/body/div[1]/div[2]/div/div[2]/div[2]/div[1]/ul/li[3]')
[32mINFO    [0m root:base.py:29 正在查找元素：('css selector', "[placeholder='请输入邮箱/手机号码']")
[32mINFO    [0m root:base.py:35 正在对：('css selector', "[placeholder='请输入邮箱/手机号码']") 元素执行清空操作
[32mINFO    [0m root:base.py:37 正在对 ('css selector', "[placeholder='请输入邮箱/手机号码']") 元素进行输入:18335519636 操作
[32mINFO    [0m root:base.py:29 正在查找元素：('css selector', "[placeholder='请输入密码']")
[32mINFO    [0m root:base.py:35 正在对：('css selector', "[placeholder='请输入密码']") 元素执行清空操作
[32mINFO    [0m root:base.py:37 正在对 ('css selector', "[placeholder='请输入密码']") 元素进行输入:123...abc 操作
[32mINFO    [0m root:base.py:41 正在对：('css selector', '.el-button--primary') 元素进行点击操作
[32mINFO    [0m root:base.py:29 正在查找元素：('css selector', '.el-button--primary')
[32mINFO    [0m root:base.py:29 正在查找元素：('xpath', '/html/body/div[1]/div[2]/div[1]/div[3]/div[2]/section/a')
[32mINFO    [0m root:base.py:45 正在对：('xpath', '/html/body/div[1]/div[2]/div[1]/div[3]/div[2]/section/a') 元素获取文本操作，获取的文本值为：lucky大志
[32mINFO    [0m root:base.py:29 正在查找元素：('xpath', '/html/body/div[1]/div[2]/div[1]/div[3]/div[2]/section/a')
[31m[1mERROR   [0m root:test_mp_login.py:35 断言出错，错误信息：assert 'lucky1大志' == 'lucky大志'
  - lucky大志
  + lucky1大志
  ?      +
[31m[1mERROR   [0m root:base.py:49 断言出错，正在进行截图操作！
[31m[1mERROR   [0m root:base.py:51 断言出错，正在将错误图片写入allure报告！